<svg version="1.1" id="Laag_1" xmlns="http://www.w3.org/2000/svg"
     xmlns:xlink="http://www.w3.org/1999/xlink" x="0px" y="0px" viewBox="0 0 740 102"
     style="enable-background:new 0 0 740 102;" xml:space="preserve">
                    <style type="text/css">
                        .st0{fill:#FF6900;}
                    </style>
    <g>
                    <g>
                        <polygon class="st0" points="311.7,100 336,100 365.6,0 341.2,0 		"></polygon>
                        <polygon class="st0" points="400.3,0 370.8,100 395.2,100 424.7,0 		"></polygon>
                    </g>
        <path d="M73.4,48c4.2-2.2,7.5-5.2,9.8-9c2.3-3.8,3.5-8.1,3.5-13c0-8-3.3-14.3-9.8-19C70.4,2.3,61,0,48.9,0H0v100h51.7
		c13,0,23-2.4,29.8-7.1c6.8-4.7,10.2-11.5,10.2-20.2c0-6.2-1.6-11.4-4.9-15.6C83.6,52.8,79.1,49.8,73.4,48z M23,17.4h23
		c5.7,0,10,1,13,2.9c3,2,4.4,4.9,4.4,8.8C63.4,33,62,36,59,38c-3,2-7.3,3-13,3H23V17.4z M63.8,79.6c-3.1,2-7.7,3-13.8,3H23V57.9h27
		c12.3,0,18.4,4.1,18.4,12.4C68.4,74.5,66.9,77.6,63.8,79.6z M253,23.1h22.3V100h-21.1v-9.1c-3,3.3-6.5,5.9-10.6,7.6
		c-4.1,1.8-8.5,2.6-13.3,2.6c-10.1,0-18.1-2.9-24-8.7c-5.9-5.8-8.9-14.4-8.9-25.9V23.1h22.3v40.1c0,12.4,5.2,18.6,15.6,18.6
		c5.3,0,9.6-1.7,12.9-5.2c3.2-3.5,4.9-8.6,4.9-15.5V23.1z M484.2,31.3c-5.5-6.2-13.2-9.3-23-9.3c-7.2,0-13.8,1.6-19.6,4.9
		c-5.9,3.2-10.5,7.9-13.8,13.9c-3.3,6-5,13-5,20.9c0,7.9,1.7,14.9,5,20.9c3.3,6,7.9,10.6,13.8,13.9c5.9,3.2,12.4,4.9,19.6,4.9
		c10.5,0,18.5-3.3,24-10v8.9h21.3V23.1h-22.3V31.3z M479,77.1c-3.7,3.9-8.4,5.8-14,5.8c-5.7,0-10.4-1.9-14.1-5.8
		c-3.7-3.9-5.6-9-5.6-15.5c0-6.5,1.9-11.6,5.6-15.5c3.7-3.9,8.4-5.8,14.1-5.8c5.6,0,10.3,1.9,14,5.8c3.7,3.9,5.6,9,5.6,15.5
		C484.6,68,482.7,73.2,479,77.1z M569,80.6l6,15.7c-2.2,1.6-4.9,2.8-8.1,3.6c-3.2,0.8-6.5,1.2-10.1,1.2c-9.1,0-16.2-2.3-21.2-7
		c-5-4.7-7.5-11.5-7.5-20.6V42h-11.9V24.9h11.9V6.1h22.3v18.7h19.1V42h-19.1v31.3c0,3.2,0.8,5.7,2.5,7.5c1.7,1.8,4,2.6,7.1,2.6
		C563.5,83.4,566.5,82.5,569,80.6z M603.9,46c-3.8,3.8-5.7,9-5.7,15.6s1.9,11.8,5.7,15.6c3.8,3.8,8.6,5.7,14.4,5.7
		c7.6,0,13.4-3.5,17.3-10.6l17.3,9.4c-2.8,6.1-7.2,10.9-13.2,14.3c-6,3.4-13.1,5.1-21.2,5.1c-8.2,0-15.5-1.7-22.1-5.1
		c-6.5-3.4-11.6-8.1-15.3-14.1c-3.7-6-5.5-12.8-5.5-20.4c0-7.6,1.8-14.4,5.5-20.4c3.7-6,8.8-10.7,15.3-14.1
		c6.5-3.4,13.9-5.1,22.1-5.1c8.1,0,15.2,1.7,21.2,5.1c6,3.4,10.5,8.2,13.2,14.5l-17.3,9.3c-4-7-9.8-10.6-17.3-10.6
		C612.5,40.3,607.7,42.2,603.9,46z M740,56v44h-22.3V59.4c0-6.1-1.3-10.6-4-13.6c-2.7-3-6.5-4.5-11.6-4.5c-5.6,0-10.1,1.7-13.4,5.2
		c-3.3,3.5-5,8.6-5,15.5v38h-22.3V0h22.3v31.1c3-3,6.5-5.2,10.7-6.8c4.2-1.6,8.8-2.4,13.7-2.4c9.5,0,17.2,2.9,23.1,8.6
		C737.1,36.3,740,44.8,740,56z M164.9,27.1c-6.4-3.4-13.7-5.1-21.8-5.1c-8.1,0-15.4,1.7-21.9,5.1c-6.5,3.4-11.5,8.1-15.2,14.1
		c-3.6,6-5.5,12.8-5.5,20.4c0,7.6,1.8,14.4,5.5,20.4c3.6,6,8.7,10.7,15.2,14.1c6.5,3.4,13.8,5.1,21.9,5.1c8.1,0,15.4-1.7,21.8-5.1
		c6.4-3.4,11.4-8.1,15.1-14.1c3.6-6,5.5-12.8,5.5-20.4c0-7.6-1.8-14.4-5.5-20.4C176.4,35.1,171.3,30.5,164.9,27.1z M157.2,77.1
		c-3.7,3.9-8.4,5.8-14.1,5.8c-5.7,0-10.5-1.9-14.2-5.8c-3.7-3.9-5.6-9-5.6-15.5c0-6.5,1.9-11.6,5.6-15.5c3.7-3.9,8.5-5.8,14.2-5.8
		c5.7,0,10.5,1.9,14.1,5.8c3.7,3.9,5.5,9,5.5,15.5C162.8,68,160.9,73.2,157.2,77.1z M306.5,0l17.4,58.8L311.7,100L282.1,0H306.5z
		 M365.6,0L383,58.8L370.8,100l-17.4-58.8L365.6,0z"></path>
</g>
</svg>